{
    "/bundles/js/app.js": "/bundles/js/app.js?id=d4a7b8605bb65ee6bbb3",
    "/bundles/css/app.css": "/bundles/css/app.css?id=8a2d071e84890afc1ad5",
    "/bundles/js/admin.js": "/bundles/js/admin.js?id=1f8608c08813b6cc59d9",
    "/bundles/languages/tinyMCE/fr_FR.js": "/bundles/languages/tinyMCE/fr_FR.js?id=bbe7065481a5e30d8cd9"
}
